 109
 241
 561
 405
 232
 444
 328
 50
 363
 594
 389
 411
 22
 492
 61
 503
 158
 102
 392
 577
 31
 429
 9
 381
 215
 52
 316
 35
 289
 293
 308
 436
 107
 140
 310
 258
 116
 71
 349
 268
 565
 466
 474
 590
 331
 16
 192
 367
 542
 268
 562
 396
 210
 420
 210
 594
 551
 23
 502
 256
 375
 469
 80
 67
 595
 509
 483
 156
 242
 476
 486
 228
 535
 241
 94
 79
 398
 94
 4
 22
 244
 208
 215
 543
 16
 383
 168
 111
 401
 225
 49
 223
 509
 169
 24
 60
 475
 414
 390
 96
 389
 262
 534
 15
 550
 129
 516
 596
 180
 329
 572
 585
 482
 199
 188
 453
 589
 153
 463
 560
 161
 591
 487
 178
 511
 366
 174
 418
 389
 484
 41
 11
 482
 265
 50
 528
 196
 158
 464
 391
 464
 392
 397
 204
 565
 485
 164
 452
 374
 575
 365
 490
 186
 342
 62
 87
 250
 255
 311
 338
 190
 338
 322
 31
 212
 282
 294
 451
 470
 54
 471
 254
 183
 20
 307
 321
 578
 461
 387
 159
 382
 404
 116
 568
 106
 215
 233
 193
 9
 400
 351
 511
 514
 462
 244
 9
 383
 332
 405
 446
 552
 147
 275
 60
 556
 243
 41
 575
 291
 388
 517
 162
 418
 180
 472
 424
 171
 377
 364
 523
 233
 253
 73
 574
 477
 578
 276
 310
 592
 179
 108
 154
 6
 106
 378
 268
 435
 336
 124
 104
 253
 143
 398
 33
 237
 155
 279
 171
 435
 223
 507
 123
 493
 83
 114
 26
 123
 459
 380
 240
 490
 35
 351
 534
 372
 143
 135
 116
 113
 151
 384
 241
 508
 536
 227
 560
 147
 389
 123
 159
 412
 500
 499
 172
 585
 381
 534
 360
 192
 445
 594
 37
 466
 81
 273
 300
 518
 102
 190
 398
 385
 173
 489
 269
 371
 475
 166
 211
 49
 383
 416
 104
 27
 53
 158
 233
 578
 111
 568
 147
 456
 483
 568
 424
 467
 112
 199
 528
 423
 258
 131
 408
 87
 261
 90
 560
 312
 358
 69
 262
 275
 508
 132
 145
 132
 462
 170
 440
 467
 510
 341
 88
 111
 83
 292
 572
 42
 300
 277
 543
 69
 104
 2
 557
 224
 11
 487
 87
 86
 139
 155
 478
 203
 553
 161
 487
 379
 258
 234
 156
 169
 461
 304
 27
 128
 55
 417
 239
 162
 490
 422
 12
 402
 68
 247
 353
 72
 308
 398
 294
 400
 535
 284
 141
 295
 416
 299
 21
 596
 599
 258
 384
 111
 32
 118
 319
 489
 140
 347
 156
 183
 397
 527
 4
 220
 282
 383
 264
 185
 490
 193
 264
 468
 558
 189
 376
 35
 383
 232
 527
 571
 407
 150
 234
 281
 323
 387
 216
 508
 494
 55
 494
 21
 353
 68
 75
 237
 549
 421
 93
 569
 3
 180
 546
 468
 83
 552
 443
 138
 234
 162
 51
 52
 511
 514
 253
 412
 387
 315
 211
 439
 360
 47
 587
 74
 450
 312
 460
 586
 75
 589
 126
 308
 483
 429
 503
 397
 492
 394
 306
 448
 435
 477
 459
 482
 66
 355
 461
 523
 19
 169
 196
 580
 375
 161
 70
 495
 125
 96
 547
 87
 230
 139
 542
 405
 156
 422
 292
 540
 59
 416
 594
 562
 416
 567
 539
 275
 174
 547
 142
 451
 343
 322
 70
 8
 95
 415
 227
 234
 301
 96
 301
 592
 131
 267
 65
 224
 84
 299
 69
 411
 349
 221
 157
 259
 140
 577
 112
 569
 29
 160
 300
 87
 548
 361
 533
 159
 84
 527
 365
 222
 262
 563
 222
 585
 301
 121
 59
 370
 22
 193
 52
 239
 326
 77
 336
 471
 43
 506
 333
 98
 100
 197
 115
 508
 149
 491
 54
 333
 322
 245
 394
 504
 44
 502
 57
 270
 202
 42
 16
 238
 415
 236
 432
 108
 553
 548
 536
 187
 218
 204
 575
 272
 15
 478
 159
 453
 198
 372
 93
 62
 340
 555
 269
 99
 308
 428
 187
 154
 452
 336
 356
 457
 466
 176
 35
 541
 227
 247
 375
 306
 484
 252
 329
 368
 474
 447
 132
 502
 91
 191
 293
 37
 167
 438
 98
 484
 257
 298
 127
 35
 448
 497
 443
 478
 187
 552
 465
 440
 281
 480
 275
 121
 429
 150
 152
 14
 488
 237
 230
 204
 353
 393
 315
 304
 143
 347
 429
 262
 120
 276
 202
 372
 138
 120
 25
 577
 574
 441
 135
 224
 332
 157
 318
 315
 362
 125
 184
 198
 534
 26
 449
 42
 523
 494
 266
 466
 160
 260
 66
 549
 307
 438
 479
 400
 253
 577
 50
 167
 271
 7
 297
 280
 555
 89
 134
 429
 261
 366
 188
 572
 16
 180
 129
 516
 229
 218
 447
 302
 214
 183
 197
 310
 440
 187
 19
 460
 15
 113
 347
 123
 147
 509
 514
 190
 384
 95
 157
 26
 100
 308
 297
 116
 42
 382
 66
 143
 99
 256
 5
 458
 132
 119
 586
 356
 202
 376
 505
 541
 122
 410
 174
 554
 405
 40
 94
 188
 57
 174
 377
 558
 171
 460
 354
 161
 15
 476
 273
 542
 418
 404
 553
 536
 511
 73
 525
 523
 102
 480
 30
 141
 115
 442
 544
 63
 586
 451
 363
 343
 272
 47
 292
 6
 564
 578
 459
 225
 533
 474
 304
 38
 573
 324
 47
 205
 283
 287
 66
 240
 135
 488
 550
 417
 358
 523
 125
 486
 477
 516
 538
 315
 297
 239
 164
 525
 477
 418
 241
 334
 550
 572
 140
 74
 240
 570
 274
 29
 500
 22
 589
 215
 377
 76
 155
 133
 254
 147
 89
 420
 562
 524
 353
 36
 346
 291
 476
 184
 513
 255
 152
 534
 111
 167
 529
 23
 512
 354
 302
 548
 173
 443
 211
 250
 496
 264
 428
 181
 32
 541
 457
 533
 197
 426
 228
 126
 197
 374
 39
 226
 445
 318
 291
 427
 35
 438
 76
 152
 264
 26
 248
 238
 51
 409
 550
 256
 344
 103
 379
 484
 352
 590
 503
 355
 370
 400
 238
 125
 23
 468
 11
 151
 140
 402
 119
 594
 72
 140
 503
 409
 516
 132
 188
 511
 2
 292
 347
 106
 254
 542
 140
 464
 250
 232
 424
 180
 278
 163
 140
 349
 588
 393
 299
 108
 498
 280
 143
 344
 568
 199
 120
 399
 81
 444
 557
 307
 278
 312
 358
 118
 182
 528
 101
 12
 146
 537
 97
 60
 284
 318
 274
 138
 432
 417
 579
 60
 187
 356
 192
 151
 536
 18
 233
 221
 505
 368
 175
 125
 27
 273
 68
 272
 42
 330
 119
 59
 331
 427
 332
 126
 169
 391
 546
 407
 374
 160
 262
 412
 563
 361
 198
 227
 108
 546
 287
 472
 154
 426
 271
 283
 204
 524
 47
 578
 448
 56
 152
 386
 386
 60
 463
 414
 487
 495
 587
 154
 124
 555
 10
 47
 159
 596
 91
 10
 479
 401
 447
 339
 376
 102
 441
 231
 422
 139
 500
 331
 499
 29
 252
 86
 11
 543
 164
 105
 564
 397
 559
 549
 340
 500
 458
 505
 482
 217
 246
 359
 279
 101
 139
 402
 21
 33
 272
 439
 341
 52
 200
 372
 151
 526
 278
 457
 42
 144
 169
 362
 179
 155
 26
 302
 506
 385
 234
 247
 225
 404
 425
 510
 494
 465
 369
 218
 399
 159
 441
 37
 317
 10
 213
 91
 201
 511
 371
 48
 538
 420
 16
 549
 57
 598
 65
 511
 4
 589
 126
 556
 471
 88
 440
 322
 321
 448
 164
 70
 561
 444
 511
 174
 569
 401
 121
 172
 555
 531
 166
 263
 401
 53
 79
 591
 9
 257
 216
 413
 140
 316
 522
 501
 488
 57
 208
 513
 307
 272
 415
 299
 256
 187
 591
 342
 230
 77
 510
 82
 363
 520
 340
 274
 305
 129
 145
 203
 79
 153
 50
 308
 448
 99
 322
 53
 296
 573
 269
 461
 330
 477
 32
 140
 78
 297
 564
 409
 392
 411
 34
 81
 173
 447
 560
 477
 463
 467
 433
 382
 295
 554
 315
 192
 73
 284
 522
 296
 27
 406
 298
 107
 560
 353
 601
 413
 417
 242
 115
 467
 187
 261
 271
 77
 404
 87
 119
 443
 70
 335
 517
 147
 278
 495
 8
 237
 286
 301
 46
 331
 270
 192
 340
 24
 474
 130
 160
 299
 389
 529
 527
 200
 595
 401
 275
 579
 404
 74
 268
 306
 516
 425
 384
 511
 535
 301
 157
 38
 426
 544
 322
 97
 92
 257
 30
 70
 44
 522
 312
 465
 300
 443
 245
 451
 283
 362
 160
 127
 521
 92
 588
 261
 115
 517
 501
 285
 182
 432
 389
 185
 432
 451
 474
 479
 106
 99
 332
 346
 457
 431
 181
 556
 180
 91
 129
 74
 72
 540
 316
 588
 143
 138
 347
 191
 40
 287
 506
 25
 447
 579
 477
 9
 5
 434
 450
 408
 562
 362
 476
 144
 407
 404
 130
 7
 568
 230
 446
 519
 110
 283
 42
 102
 19
 64
 20
 101
 591
 316
 578
 256
 151
 387
 288
 409
 37
 415
 415
 145
 330
 300
 255
 171
 72
 109
 389
 422
 325
 112
 152
 64
 65
 467
 77
 242
 296
 114
 227
 340
 427
 199
 257
 29
 257
 28
 331
 254
 99
 223
 131
 524
 566
 282
 516
 25
 177
 519
 233
 294
 509
 557
 196
 39
 204
 257
 571
 403
 483
 419
 437
 166
 193
 436
 259
 485
 114
 185
 209
 213
 333
 119
 507
 312
 160
 99
 476
 317
 469
 140
 330
 531
 518
 496
 30
 217
 109
 527
 535
 333
 422
 600
 486
 208
 597
 183
 100
 323
 220
 55
 503
 552
 237
 305
 43
 134
 374
 601
 414
 466
 386
 474
 140
 503
 84
 110
 233
 371
 302
 147
 437
 525
 359
 21
 417
 390
 291
 148
 80
 227
 157
 218
 184
 412
 88
 307
 512
 76
 3
 145
 403
 198
 506
 507
 171
 584
 361
 450
 393
 399
 396
 80
 553
 359
 113
 509
 242
 4
 247
 23
 506
 218
 520
 293
 185
 525
 290
 432
 364
 86
 187
 463
 362
 91
 258
 541
 347
 394
 203
 81
 308
 401
 258
 594
 318
 45
 569
 109
 463
 438
 132
 29
 232
 491
 266
 397
 413
 431
 390
 412
 476
 207
 395
 398
 141
 86
 382
 59
 128
 264
 373
 311
 283
 335
 550
 502
 562
 181
 162
 473
 353
 239
 544
 136
 454
 298
 333
 422
 521
 446
 9
 68
 349
 315
 302
 211
 136
 315
 322
 562
 494
 550
 507
 71
 108
 564
 178
 198
 552
 507
 8
 276
 534
 429
 237
 198
 542
 252
 55
 507
 513
 237
 567
 498
 601
 591
 584
 554
 192
 110
 457
 500
 89
 185
 106
 198
 579
 92
 467
 71
 484
 410
 575
 163
 138
 58
 495
 178
 589
 269
 340
 105
 512
 290
 68
 556
 190
 334
 382
 54
 217
 395
 320
 495
 365
 484
 381
 320
 587
 98
 557
 582
 570
 542
 524
 25
 200
 404
 324
 312
 327
 112
 134
 219
 266
 431
 44
 197
 494
 517
 498
 132
 542
 222
 267
 525
 334
 291
 576
 425
 81
 188
 507
 150
 62
 36
 58
 115
 333
 525
 366
 237
 560
 289
 163
 495
 420
 154
 402
 601
 487
 439
 338
 23
 563
 19
 350
 60
 592
 291
 544
 500
 361
 500
 186
 259
 548
 479
 365
 77
 541
 338
 547
 91
 332
 277
 150
 430
 458
 237
 292
 476
 387
 456
 186
 28
 141
 390
 21
 279
 32
 40
 503
 405
 69
 199
 214
 33
 520
 132
 409
 323
 370
 520
 332
 280
 351
 135
 564
 391
 423
 229
 292
 98
 224
 325
 588
 471
 112
 178
 435
 459
 128
 276
 43
 10
 564
 2
 531
 13
 503
 574
 467
 584
 523
 569
 232
 230
 38
 547
 391
 348
 56
 519
 158
 456
 137
 161
 222
 380
 551
 533
 533
 570
 573
 357
 120
 157
 416
 295
 589
 17
 379
 217
 222
 41
 138
 98
 514
 299
 395
 318
 597
 114
 176
 509
 376
 200
 409
 264
 499
 446
 383
 537
 455
 377
 123
 95
 176
 402
 165
 443
 247
 43
 169
 314
 478
 481
 531
 286
 141
 106
 507
 171
 298
 205
 52
 356
 252
 96
 510
 519
 584
 33
 411
 188
 100
 53
 503
 509
 585
 583
 448
 426
 519
 566
 325
 332
 160
 301
 475
 163
 302
 496
 83
 575
 584
 96
 287
 335
 447
 475
 35
 498
 376
 371
 392
 584
 538
 601
 171
 395
 350
 350
 461
 583
 87
 270
 35
 116
 423
 473
 366
 148
 41
 63
 261
 157
 445
 216
 534
 484
 77
 45
 499
 340
 359
 198
 313
 522
 467
 273
 228
 478
 172
 387
 311
 176
 491
 463
 304
 476
 39
 296
 583
 212
 433
 357
 38
 457
 500
 24
 324
 270
 506
 138
 388
 41
 185
 495
 187
 462
 460
 481
 63
 481
 134
 292
 106
 400
 345
 53
 382
 451
 500
 96
 50
 529
 580
 140
 267
 56
 177
 221
 294
 337
 9
 342
 401
 573
 250
 425
 33
 472
 105
 165
 270
 513
 600
 595
 139
 530
 195
 45
 74
 459
 411
 66
 429
 517
 172
 298
 270
 45
 409
 507
 295
 576
 528
 542
 342
 597
 455
 289
 136
 108
 421
 178
 511
 441
 590
 436
 182
 468
 582
 81
 297
 120
 527
 341
 305
 422
 190
 138
 381
 389
 511
 517
 428
 416
 201
 301
 191
 117
 483
 347
 84
 381
 526
 426
 500
 373
 397
 437
 294
 400
 294
 127
 117
 215
 236
 203
 276
 502
 470
 280
 10
 11
 583
 448
 345
 510
 432
 374
 32
 184
 291
 530
 88
 505
 166
 59
 427
 226
 399
 223
 456
 331
 559
 50
 35
 459
 303
 296
 74
 210
 343
 465
 211
 268
 102
 224
 129
 12
 579
 383
 133
 26
 210
 283
 528
 219
 26
 592
 366
 355
 563
 393
 279
 18
 476
 574
 464
 576
 339
 18
 478
 6
 270
 423
 594
 211
 518
 337
 48
 479
 132
 84
 274
 383
 492
 266
 385
 142
 429
 405
 363
 13
 82
 349
 424
 71
 171
 335
 318
 83
 388
 235
 381
 182
 167
 184
 285
 388
 518
 342
 187
 243
 280
 151
 35
 381
 141
 586
 599
 536
 421
 334
 5
 323
 10
 304
 430
 431
 142
 433
 187
 63
 446
 528
 578
 422
 94
 87
 79
 524
 15
 435
 86
 412
 235
 501
 276
 189
 481
 233
 501
 251
 540
 488
 175
 97
 382
 566
 550
 438
 562
 553
 209
 265
 38
 228
 378
 49
 183
 480
 587
 230
 231
 246
 476
 502
 369
 379
 73
 477
 45
 544
 191
 260
 79
 357
 143
 244
 34
 394
 411
 79
 266
 594
 254
 132
 383
 228
 25
 445
 173
 175
 287
 14
 232
 505
 121
 85
 53
 284
 414
 368
 468
 533
 474
 175
 290
 3
 32
 583
 211
 577
 418
 400
 388
 40
 189
 412
 309
 124
 178
 573
 93
 88
 206
 25
 521
 112
 235
 372
 405
 268
 327
 67
 395
 340
 154
 584
 312
 125
 78
 351
 347
 198
 87
 468
 234
 495
 585
 342
 221
 223
 593
 36
 299
 487
 12
 307
 435
 425
 587
 169
 139
 567
 184
 401
 492
 241
 570
 595
 7
 23
 156
 111
 320
 454
 565
 206
 601
 499
 64
 413
 410
 322
 75
 151
 51
 529
 492
 574
 36
 342
 360
 54
 324
 441
 333
 430
 429
 135
 359
 428
 449
 485
 216
 507
 270
 117
 592
 452
 412
 296
 333
 326
 408
 216
 387
 339
 497
 441
 580
 305
 175
 275
 347
 585
 363
 78
 451
 167
 506
 547
 100
 375
 555
 259
 565
 312
 120
 511
 245
 200
 145
 515
 355
 348
 443
 335
 102
 186
 216
 59
 479
 509
 24
 414
 19
 244
 494
 331
 36
 79
 45
 49
 126
 255
 97
 414
 271
 338
 482
 167
 520
 247
 114
 374
 472
 36
 544
 113
 184
 473
 589
 403
 81
 304
 516
 497
 457
 524
 335
 323
 61
 243
 404
 588
 544
 498
 582
 376
 570
 267
 360
 50
 44
 461
 148
 255
 95
 401
 482
 586
 132
 436
 396
 445
 422
 213
 270
 472
 524
 293
 459
 194
 322
 166
 226
 161
 151
 154
 327
 415
 426
 569
 294
 11
 229
 94
 451
 169
 204
 583
 221
 487
 47
 527
 241
 541
 306
 593
 186
 489
 494
 475
 549
 412
 136
 333
 571
 420
 455
 596
 296
 38
 555
 576
 89
 311
 169
 294
 563
 568
 227
 291
 317
 340
 204
 358
 591
 80
 41
 319
 92
 422
 467
 66
 579
 429
 449
 11
 348
 32
 211
 541
 37
 497
 409
 339
 428
 434
 49
 33
 215
 544
 112
 464
 543
 165
 408
 468
 459
 120
 55
 524
 81
 147
 152
 270
 583
 233
 195
 28
 248
 474
 551
 167
 522
 4
 104
 206
 156
 192
 275
 299
 228
 166
 383
 378
 38
 237
 102
 143
 145
 227
 480
 155
 420
 381
 368
 114
 350
 421
 96
 469
 403
 325
 128
 559
 594
 148
 380
 14
 211
 444
 459
 399
 254
 516
 395
 174
 383
 361
 554
 521
 213
 540
 600
 40
 89
 440
 488
 292
 316
 51
 429
 521
 194
 303
 498
 321
 530
 387
 345
 326
 439
 562
 404
 131
 369
 192
 266
 359
 36
 437
 106
 368
 579
 319
 531
 512
 557
 248
 532
 71
 157
 225
 527
 508
 319
 41
 488
 201
 118
 127
 387
 514
 467
 80
 179
 17
 88
 389
 359
 554
 515
 284
 136
 502
 198
 401
 261
 190
 419
 216
 151
 342
 348
 42
 57
 35
 528
 10
 78
 171
 250
 331
 102
 335
 388
 168
 68
 295
 409
 527
 495
 442
 311
 83
 248
 520
 403
 428
 571
 575
 79
 285
 574
 134
 326
 434
 262
 338
 457
 76
 281
 498
 66
 219
 167
 313
 565
 382
 65
 327
 558
 458
 212
 484
 469
 109
 471
 515
 334
 558
 255
 214
 501
 515
 44
 68
 7
 133
 156
 411
 428
 20
 37
 204
 73
 43
 424
 218
 458
 80
 209
 182
 276
 578
 59
 323
 56
 175
 80
 25
 531
 585
 446
 304
 538
 509
 205
 554
 59
 504
 13
 205
 359
 29
 301
 3
 76
 103
 430
 288
 255
 128
 382
 8
 302
 268
 480
 451
 124
 541
 232
 110
 565
 131
 332
 279
 393
 432
 583
 261
 134
 213
 359
 273
 381
 141
 494
 213
 303
 196
 205
 599
 33
 307
 524
 289
 346
 275
 239
 537
 381
 354
 219
 232
 529
 223
 302
 42
 414
 151
 427
 329
 155
 178
 581
 309
 419
 181
 155
